Get started
…
#> 
#> $coach
#>               Name         Alma mater            Seasons             Record 
#>        "John Cook" "San Diego - 1979"               "32"          "883-176" 
#> 
#> $record
#>      Overall record      Overall streak   Conference record   Conference streak 
#>      "33-3 (0.917)"        "Streak: L1"      "19-1 (0.950)"        "Streak: L1" 
#>         Home record         Home streak         Road record         Road streak 
#>      "22-0 (1.000)"       "Streak: W45"      "10-2 (0.833)"        "Streak: W1" 
#>      Neutral record      Neutral streak Non-division record Non-division streak 
#>       "1-1 (0.500)"        "Streak: L1"       "0-0 (0.000)"         "Streak: 0" 
#> 
#> $schedule
#> # A tibble: 36 × 4
#>    Date       Opponent                 Result Attendance
#>    <chr>      <chr>                    <chr>  <chr>     
#>  1 08/27/2024 Kentucky @Louisville, KY W 3-1  9,280     
#>  2 08/30/2024 A&M-Corpus Christi       W 3-0  8,956     
#>  3 08/31/2024 TCU                      W 3-1  8,695     
#>  4 09/03/2024 @ SMU                    L 0-3  6,773     
#>  5 09/05/2024 The Citadel              W 3-0  8,607     
#>  6 09/07/2024 Montana St.              W 3-0  8,456     
#>  7 09/10/2024 Creighton                W 3-2  8,924     
#>  8 09/13/2024 Arizona St.              W 3-0  8,772     
#>  9 09/14/2024 Wichita St.              W 3-0  8,541     
#> 10 09/18/2024 Stanford                 W 3-0  8,952     
#> # ℹ 26 more rows
…
Aggregating data

Though the season, match, and play-by-play data are useful at the individual level, they can be more useful when aggregated. The group_stats() function aggregates season, match, and play-by-play data over multiple teams and/or years by applying the player_season_stats(), player_match_stats(), or match_pbp() across teams and years.

group_stats(teams = c("Nebraska", "Wisconsin"), year = 2023:2024, level = "season")
#> $playerdata
#> # A tibble: 54 × 30
#>    Season    Team   Conference Number Player Yr    Pos   Ht       GP    GS     S
#>    <chr>     <chr>  <chr>       <dbl> <chr>  <chr> <chr> <chr> <dbl> <dbl> <dbl>
#>  1 2023-2024 Nebra… Big Ten         2 Berge… Fr    S     6-1      35    35   121
#>  2 2023-2024 Nebra… Big Ten         5 Rebek… So    MB    6-4      32    31   105
#>  3 2023-2024 Nebra… Big Ten         6 Laney… Fr    L/DS  5-3      34    33   117
#>  4 2023-2024 Nebra… Big Ten         7 Maisi… So    L/DS  5-6      18     0    36
#>  5 2023-2024 Nebra… Big Ten         8 Lexi … Jr    L/DS  5-5      35     0   121
#>  6 2023-2024 Nebra… Big Ten         9 Kenne… Jr    S     6-0      29     0    96
#>  7 2023-2024 Nebra… Big Ten        11 Hayde… So    OH    6-2       9     0    10
#>  8 2023-2024 Nebra… Big Ten        13 Merri… Jr    OH    6-4      35    35   121
#>  9 2023-2024 Nebra… Big Ten        14 Ally … Jr    OH    6-5      30     2    87
#> 10 2023-2024 Nebra… Big Ten        15 Andi … Fr    MB    6-3      34    34   118
#> # ℹ 44 more rows
#> # ℹ 19 more variables: Kills <dbl>, Errors <dbl>, `Total Attacks` <dbl>,
#> #   `Hit Pct` <dbl>, Assists <dbl>, Aces <dbl>, SErr <dbl>, Digs <dbl>,
#> #   RetAtt <dbl>, RErr <dbl>, `Block Solos` <dbl>, `Block Assists` <dbl>,
#> #   BErr <dbl>, PTS <dbl>, BHE <dbl>, `Trpl Dbl` <dbl>, `Dbl Dbl` <dbl>,
#> #   Hometown <chr>, `High School` <chr>
…
We don’t have other examples, because these take a while to run.

There are also convenience functions conference_stats() and division_stats() that automatically extract data for a particular conference or NCAA division.

conference_stats(year = 2024, conf = "Big Ten", level = "season")
#> $playerdata
#> # A tibble: 274 × 29
#>    Season    Team     Conference Number Player        Yr    Pos   Ht    Hometown
#>    <chr>     <chr>    <chr>       <dbl> <chr>         <chr> <chr> <chr> <chr>   
#>  1 2024-2025 Illinois Big Ten         2 Raegen Reilly Sr    S     5-10  Sioux F…
#>  2 2024-2025 Illinois Big Ten         3 Lily Barry    So    L/DS  5-6   Emden, …
#>  3 2024-2025 Illinois Big Ten         4 Bianca May    So    S     5-8   Orland …
#>  4 2024-2025 Illinois Big Ten         5 Taylor de Bo… Fr    OH    6-4   Kelowna…
#>  5 2024-2025 Illinois Big Ten         8 Averie Herna… Jr    OH    6-2   Bloomin…
#>  6 2024-2025 Illinois Big Ten        10 Caroline Bar… Sr    L/DS  5-11  Napervi…
#>  7 2024-2025 Illinois Big Ten        11 Cari Bohm     So    MB    6-4   Ann Arb…
#>  8 2024-2025 Illinois Big Ten        12 Raina Terry   Sr    OH    6-1   Marengo…
#>  9 2024-2025 Illinois Big Ten        13 Kenzie Cogan  Fr    L/DS  5-7   Cincinn…
#> 10 2024-2025 Illinois Big Ten        16 Ashlyn Philp… Fr    MB    6-4   Greenvi…
#> # ℹ 264 more rows
#> # ℹ 20 more variables: `High School` <chr>, GP <dbl>, GS <dbl>, S <dbl>,
#> #   Kills <dbl>, Errors <dbl>, `Total Attacks` <dbl>, `Hit Pct` <dbl>,
#> #   Assists <dbl>, Aces <dbl>, SErr <dbl>, Digs <dbl>, RetAtt <dbl>,
#> #   RErr <dbl>, `Block Solos` <dbl>, `Block Assists` <dbl>, BErr <dbl>,
#> #   PTS <dbl>, BHE <dbl>, `Trpl Dbl` <dbl>
…
